
.SUBCKT TOP

* Model for MOS Cap in n well (not included here)
* Terminals are:
*   1 = Gate
*   2 = Diffusion
*   3 = Body (substrate)

X1 C1 NPUMP GND MOSCAPN W=24u L=17.2u N=2
X2 C2 NPUMP GND MOSCAPN W=14u L=17.2u N=2

* Standard fingered NMOS transistor

M1 NPUMP DOWN VSS GND NMOS L=0.4u W=50u

.ENDS

